project_1/test.vcd
$date
	Thu Dec 13 15:36:25 2018
$end
$version
	Icarus Verilog
$end
$timescale
	1s
$end
$scope module OR $end
$var wire 1 ! data1_i $end
$var wire 1 " data2_i $end
$var wire 1 # data_o $end
$upscope $end
$scope module TestBench $end
$var reg 1 $ Clk $end
$var reg 1 % Reset $end
$var reg 1 & Start $end
$var integer 32 ' counter [31:0] $end
$var integer 32 ( flush [31:0] $end
$var integer 32 ) i [31:0] $end
$var integer 32 * oldflush [31:0] $end
$var integer 32 + oldstall [31:0] $end
$var integer 32 , outfile [31:0] $end
$var integer 32 - stall [31:0] $end
$scope module CPU $end
$var wire 1 $ clk_i $end
$var wire 1 % rst_i $end
$var wire 1 & start_i $end
$var wire 32 . inst_addr [31:0] $end
$scope module ALU $end
$var wire 32 / data2_i [31:0] $end
$var wire 32 0 data1_i [31:0] $end
$var wire 3 1 ALUCtrl_i [2:0] $end
$var reg 32 2 data_o [31:0] $end
$upscope $end
$scope module ALU_Control $end
$var wire 32 3 funct_i [31:0] $end
$var wire 7 4 funct7 [6:0] $end
$var wire 3 5 funct3 [2:0] $end
$var wire 2 6 ALUOp_i [1:0] $end
$var reg 3 7 ALUCtrl_o [2:0] $end
$upscope $end
$scope module AND $end
$var wire 1 8 data_o $end
$var wire 1 9 data2_i $end
$var wire 1 : data1_i $end
$upscope $end
$scope module Add_PC $end
$var wire 32 ; data2_in [31:0] $end
$var wire 32 < data_o [31:0] $end
$var wire 32 = data1_in [31:0] $end
$upscope $end
$scope module Add_notPC $end
$var wire 32 > data_o [31:0] $end
$var wire 32 ? data2_in [31:0] $end
$var wire 32 @ data1_in [31:0] $end
$upscope $end
$scope module Control $end
$var wire 7 A Op_i [6:0] $end
$var reg 2 B ALUOp_o [1:0] $end
$var reg 1 C ALUSrc_o $end
$var reg 1 D EX_Flush_o $end
$var reg 1 E ID_Flush_o $end
$var reg 1 F IF_Flush_o $end
$var reg 1 9 IsBranch_o $end
$var reg 1 G MemRead_o $end
$var reg 1 H MemToReg_o $end
$var reg 1 I MemWrite_o $end
$var reg 1 J RegDst_o $end
$var reg 1 K RegWrite_o $end
$upscope $end
$scope module Data $end
$var wire 1 $ clk_i $end
$var wire 32 L addr_i [31:0] $end
$var wire 32 M WData_i [31:0] $end
$var wire 1 N MemWrite_i $end
$var wire 1 O MemRead_i $end
$var reg 32 P ReadData_o [31:0] $end
$upscope $end
$scope module EXMEM $end
$var wire 32 Q ALU_i [31:0] $end
$var wire 1 $ clk_i $end
$var wire 1 R RegWrite_i $end
$var wire 1 S MemWrite_i $end
$var wire 1 T MemToReg_i $end
$var wire 1 U MemRead_i $end
$var wire 32 V MUXdown_i [31:0] $end
$var wire 5 W IDEX_i [4:0] $end
$var reg 5 X MEMWB_o [4:0] $end
$var reg 1 O MemRead_o $end
$var reg 1 Y MemToReg_o $end
$var reg 1 N MemWrite_o $end
$var reg 1 Z RegWrite_o $end
$var reg 32 [ data1_o [31:0] $end
$var reg 32 \ data2_o [31:0] $end
$upscope $end
$scope module Equal $end
$var wire 32 ] data2_i [31:0] $end
$var wire 32 ^ data1_i [31:0] $end
$var reg 1 : data_o $end
$upscope $end
$scope module Forward $end
$var wire 1 Z EXMEMRegWrite_i $end
$var wire 5 _ EXMEMforward_i [4:0] $end
$var wire 5 ` MEMforward_i [4:0] $end
$var wire 1 a MEMWBRegWrite_i $end
$var wire 5 b IDEX2_i [4:0] $end
$var wire 5 c IDEX1_i [4:0] $end
$var reg 2 d MUXdown_o [1:0] $end
$var reg 2 e MUXup_o [1:0] $end
$upscope $end
$scope module Hazard $end
$var wire 32 f IFID_i [31:0] $end
$var wire 5 g IDEX_i [4:0] $end
$var wire 1 U IDEXM_i $end
$var reg 1 h IFID_o $end
$var reg 5 i IFID_rs [4:0] $end
$var reg 5 j IFID_rt [4:0] $end
$var reg 1 k OR_o $end
$var reg 1 l PCSelect_o $end
$upscope $end
$scope module IDEX $end
$var wire 1 $ clk_i $end
$var wire 32 m inst_i [31:0] $end
$var wire 32 n SignExtended_i [31:0] $end
$var wire 5 o Rs2_i [4:0] $end
$var wire 5 p Rs1_i [4:0] $end
$var wire 1 q RegWrite_i $end
$var wire 1 r RegDst_i $end
$var wire 5 s Rd_i [4:0] $end
$var wire 32 t RTData_i [31:0] $end
$var wire 32 u RSData_i [31:0] $end
$var wire 1 v MemWrite_i $end
$var wire 1 w MemToReg_i $end
$var wire 1 x MemRead_i $end
$var wire 1 y ALUSrc_i $end
$var wire 2 z ALUOp_i [1:0] $end
$var reg 2 { ALUOp_o [1:0] $end
$var reg 1 | ALUSrc_o $end
$var reg 1 U MemRead_o $end
$var reg 1 T MemToReg_o $end
$var reg 1 S MemWrite_o $end
$var reg 32 } RSData_o [31:0] $end
$var reg 32 ~ RTData_o [31:0] $end
$var reg 5 !" Rd_o [4:0] $end
$var reg 1 "" RegDst_o $end
$var reg 1 R RegWrite_o $end
$var reg 5 #" Rs1_o [4:0] $end
$var reg 5 $" Rs2_o [4:0] $end
$var reg 32 %" SignExtended_o [31:0] $end
$var reg 32 &" inst_o [31:0] $end
$upscope $end
$scope module IFID $end
$var wire 1 h IFIDWrite_i $end
$var wire 1 8 IFflush_i $end
$var wire 1 $ clk_i $end
$var wire 32 '" pc_i [31:0] $end
$var wire 32 (" instr_i [31:0] $end
$var reg 32 )" addnotPC_o [31:0] $end
$var reg 32 *" instr_o [31:0] $end
$upscope $end
$scope module Instruction_Memory $end
$var wire 32 +" instr_o [31:0] $end
$var wire 32 ," addr_i [31:0] $end
$upscope $end
$scope module MEMWB $end
$var wire 1 Y MemToReg_i $end
$var wire 1 Z RegWrite_i $end
$var wire 1 $ clk_i $end
$var wire 32 -" data1_i [31:0] $end
$var wire 32 ." data2_i [31:0] $end
$var wire 5 /" data3_i [4:0] $end
$var reg 5 0" Forward_o [4:0] $end
$var reg 32 1" MUX1_o [31:0] $end
$var reg 32 2" MUX2_o [31:0] $end
$var reg 1 3" MemToReg_o $end
$var reg 1 a RegWrite_o $end
$upscope $end
$scope module MUX4to1down $end
$var wire 32 4" data1_i [31:0] $end
$var wire 32 5" data3_i [31:0] $end
$var wire 2 6" select_i [1:0] $end
$var wire 32 7" data2_i [31:0] $end
$var reg 32 8" data_o [31:0] $end
$upscope $end
$scope module MUX4to1up $end
$var wire 32 9" data1_i [31:0] $end
$var wire 32 :" data3_i [31:0] $end
$var wire 2 ;" select_i [1:0] $end
$var wire 32 <" data2_i [31:0] $end
$var reg 32 =" data_o [31:0] $end
$upscope $end
$scope module MUX8 $end
$var wire 2 >" ALUOp_i [1:0] $end
$var wire 1 C ALUSrc_i $end
$var wire 1 k IsHazard_i $end
$var wire 1 G MemRead_i $end
$var wire 1 H MemToReg_i $end
$var wire 1 I MemWrite_i $end
$var wire 1 J RegDst_i $end
$var wire 1 K RegWrite_i $end
$var wire 1 ?" isBranch_i $end
$var wire 1 @" isBranch_o $end
$var wire 1 q RegWrite_o $end
$var wire 1 r RegDst_o $end
$var wire 1 v MemWrite_o $end
$var wire 1 w MemToReg_o $end
$var wire 1 x MemRead_o $end
$var wire 1 y ALUSrc_o $end
$var wire 2 A" ALUOp_o [1:0] $end
$upscope $end
$scope module MUX_PC $end
$var wire 32 B" data1_i [31:0] $end
$var wire 32 C" data2_i [31:0] $end
$var wire 1 D" select_i $end
$var reg 32 E" data_o [31:0] $end
$upscope $end
$scope module MUX_final $end
$var wire 32 F" data1_i [31:0] $end
$var wire 32 G" data2_i [31:0] $end
$var wire 1 H" select_i $end
$var reg 32 I" data_o [31:0] $end
$upscope $end
$scope module MUX_immediate $end
$var wire 32 J" data1_i [31:0] $end
$var wire 32 K" data2_i [31:0] $end
$var wire 1 | select_i $end
$var reg 32 L" data_o [31:0] $end
$upscope $end
$scope module PC $end
$var wire 1 l PCWrite_i $end
$var wire 1 $ clk_i $end
$var wire 32 M" pc_i [31:0] $end
$var wire 1 % rst_i $end
$var wire 1 & start_i $end
$var reg 32 N" pc_o [31:0] $end
$upscope $end
$scope module Registers $end
$var wire 5 O" RDaddr_i [4:0] $end
$var wire 32 P" RDdata_i [31:0] $end
$var wire 5 Q" RSaddr_i [4:0] $end
$var wire 32 R" RSdata_o [31:0] $end
$var wire 5 S" RTaddr_i [4:0] $end
$var wire 32 T" RTdata_o [31:0] $end
$var wire 1 a RegWrite_i $end
$var wire 1 $ clk_i $end
$upscope $end
$scope module ShiftLeft $end
$var wire 32 U" data_i [31:0] $end
$var reg 32 V" data_o [31:0] $end
$upscope $end
$scope module Sign_Extend $end
$var wire 32 W" data_i [31:0] $end
$var wire 1 F isflush_i $end
$var wire 1 I memwrite_i $end
$var reg 32 X" data_o [31:0] $end
$var reg 12 Y" imm [11:0] $end
$upscope $end
$upscope $end
$upscope $end
$enddefinitions $end
#0
$dumpvars
b0 Y"
b0 X"
b0 W"
b0 V"
b0 U"
b0 T"
b0 S"
b0 R"
b0 Q"
bx P"
bx O"
b0 N"
b100 M"
b0 L"
bx K"
b0 J"
bx I"
xH"
bx G"
bx F"
b100 E"
1D"
b100 C"
b0 B"
b0 A"
z@"
z?"
b0 >"
b0 ="
bx <"
b0 ;"
bx :"
b0 9"
b0 8"
bx 7"
b0 6"
bx 5"
b0 4"
x3"
bx 2"
bx 1"
bx 0"
bx /"
bx ."
bx -"
b0 ,"
b1000010011 +"
b0 *"
b0 )"
b1000010011 ("
b0 '"
b0 &"
bx %"
b0 $"
b0 #"
x""
b0 !"
b0 ~
b0 }
x|
bx {
b0 z
0y
0x
0w
0v
b0 u
b0 t
b0 s
0r
0q
b0 p
b0 o
b0 n
b0 m
1l
0k
b0 j
b0 i
1h
b0 g
b0 f
b0 e
b0 d
b0 c
b0 b
xa
bx `
bx _
b0 ^
b0 ]
bx \
bx [
xZ
xY
bx X
b0 W
b0 V
xU
xT
xS
xR
bx Q
bx P
xO
xN
bx M
bx L
0K
0J
0I
0H
0G
0F
xE
xD
0C
b0 B
b0 A
b0 @
b0 ?
b0 >
b0 =
b100 <
b100 ;
1:
09
08
bx 7
bx 6
b0 5
b0 4
b0 3
bx 2
bx 1
b0 0
b0 /
b0 .
b0 -
b11 ,
bx +
bx *
b100000 )
b0 (
b0 '
0&
0%
1$
x#
z"
z!
$end
#12
b0 *
b0 +
1%
#25
0$
#50
b0 2
b0 Q
b10 1
b10 7
b1000 E"
b1000 M"
1q
1y
1K
1C
b10011 A
b100 s
b10000010011 ("
b10000010011 +"
0T
0R
0S
0U
b0 6
b0 {
0""
0|
b0 %"
b0 K"
b0 X
b0 _
b0 /"
b0 M
b0 \
b1000010011 f
b1000010011 m
b1000010011 *"
b1000010011 W"
b1000 <
b1000 C"
b100 .
b100 =
b100 '"
b100 ,"
b100 N"
1&
b1 '
1$
#75
0$
#100
b1100 E"
b1100 M"
b1000 s
b100000000010010010011 ("
b100000000010010010011 +"
b100 >
b100 B"
b100 @
b100 )"
b10000010011 f
b10000010011 m
b10000010011 *"
b10000010011 W"
b0 L
b0 [
b0 ."
b0 5"
b0 :"
0O
0N
0Z
0Y
b0 `
b0 0"
b0 O"
1R
1|
b100 W
b100 g
b100 !"
b1000010011 3
b1000010011 &"
b1100 <
b1100 C"
b1000 .
b1000 =
b1000 '"
b1000 ,"
b1000 N"
b10 '
1$
#125
0$
#150
b10 ?
b10 V"
b1 n
b1 U"
b1 X"
b0 7"
b0 <"
b0 I"
b0 P"
b1 i
b1 Y"
b10000 E"
b10000 M"
1H"
b1 S"
b1 o
b1001 s
b100010010011 ("
b100010010011 +"
b1000 W
b1000 g
b1000 !"
b10000010011 3
b10000010011 &"
b0 2"
b0 G"
0a
03"
b100 X
b100 _
b100 /"
1Z
b1010 >
b1010 B"
b1000 @
b1000 )"
b100000000010010010011 f
b100000000010010010011 m
b100000000010010010011 *"
b100000000010010010011 W"
b10000 <
b10000 C"
b1100 .
b1100 =
b1100 '"
b1100 ,"
b1100 N"
b11 '
1$
#175
0$
#200
b0 ?
b0 V"
b0 n
b0 U"
b0 X"
b1 2
b1 Q
b0 Y"
b1 /
b1 L"
b0 i
b10100 E"
b10100 M"
b0 S"
b0 o
b10001 s
b100000000100100010011 ("
b100000000100100010011 +"
b1100 >
b1100 B"
b1100 @
b1100 )"
b100010010011 f
b100010010011 m
b100010010011 *"
b100010010011 W"
b1000 X
b1000 _
b1000 /"
b100 `
b100 0"
b100 O"
1a
b1 %"
b1 K"
b1001 W
b1001 g
b1001 !"
b1 b
b1 $"
b100000000010010010011 3
b100000000010010010011 &"
b10100 <
b10100 C"
b10000 .
b10000 =
b10000 '"
b10000 ,"
b10000 N"
b100 '
1$
#225
0$
#250
b10 ?
b10 V"
b1 n
b1 U"
b1 X"
b0 2
b0 Q
b0 /
b0 L"
b1 i
b1 Y"
b11000 E"
b11000 M"
b1 S"
b1 o
b10010 s
b100010100000000011 ("
b100010100000000011 +"
b0 %"
b0 K"
b10001 W
b10001 g
b10001 !"
b0 b
b0 $"
b100010010011 3
b100010010011 &"
b1000 `
b1000 0"
b1000 O"
b1001 X
b1001 _
b1001 /"
b1 L
b1 [
b1 ."
b1 5"
b1 :"
b10010 >
b10010 B"
b10000 @
b10000 )"
b100000000100100010011 f
b100000000100100010011 m
b100000000100100010011 *"
b100000000100100010011 W"
b11000 <
b11000 C"
b10100 .
b10100 =
b10100 '"
b10100 ,"
b10100 N"
b101 '
1$
#275
0$
#300
b0 ?
b0 V"
b0 n
b0 U"
b0 X"
b1 2
b1 Q
b0 Y"
b1 7"
b1 <"
b1 I"
b1 P"
b1 /
b1 L"
b100 j
b0 i
b11100 E"
b11100 M"
1w
1x
1H
1G
b100 Q"
b0 S"
b11 A
b100 p
b0 o
b10000 s
b10000000101000010011 ("
b10000000101000010011 +"
b10100 >
b10100 B"
b10100 @
b10100 )"
b100010100000000011 f
b100010100000000011 m
b100010100000000011 *"
b100010100000000011 W"
b10001 X
b10001 _
b10001 /"
b0 L
b0 [
b0 ."
b0 5"
b0 :"
b1001 `
b1001 0"
b1001 O"
b1 2"
b1 G"
b1 %"
b1 K"
b10010 W
b10010 g
b10010 !"
b1 b
b1 $"
b100000000100100010011 3
b100000000100100010011 &"
b11100 <
b11100 C"
b11000 .
b11000 =
b11000 '"
b11000 ,"
b11000 N"
b110 '
1$
#325
0$
#350
0y
0q
0@"
1k
0h
0l
b0 2
b0 Q
b0 /
b0 L"
b0 7"
b0 <"
b0 I"
b0 P"
b10000 j
b100000 E"
b100000 M"
0w
0x
b10 5
0H
0G
b10000 Q"
b10011 A
b10000 p
b10100 s
b1000000100110000000100000110011 ("
b1000000100110000000100000110011 +"
1T
1U
b0 %"
b0 K"
b10000 W
b10000 g
b10000 !"
b0 b
b0 $"
b100 c
b100 #"
b100010100000000011 3
b100010100000000011 &"
b10001 `
b10001 0"
b10001 O"
b0 2"
b0 G"
b10010 X
b10010 _
b10010 /"
b1 L
b1 [
b1 ."
b1 5"
b1 :"
b11000 >
b11000 B"
b11000 @
b11000 )"
b10000000101000010011 f
b10000000101000010011 m
b10000000101000010011 *"
b10000000101000010011 W"
b100000 <
b100000 C"
b11100 .
b11100 =
b11100 '"
b11100 ,"
b11100 N"
b111 '
1$
#375
0$
#400
1y
1q
z@"
b1 7"
b1 <"
b1 I"
b1 P"
0k
1h
1l
b10 e
b10 ;"
b0 5
b10000 X
b10000 _
b10000 /"
b0 L
b0 [
b0 ."
b0 5"
b0 :"
1O
1Y
b10010 `
b10010 0"
b10010 O"
b1 2"
b1 G"
0T
0R
0U
0|
b10100 W
b10100 g
b10100 !"
b10000 c
b10000 #"
b10000000101000010011 3
b10000000101000010011 &"
b100000 <
b100000 C"
b11100 .
b11100 =
b11100 '"
b11100 ,"
b11100 N"
b1 -
b1000 '
1$
#425
b101 P
b101 -"
0$
#450
b100000010010 ?
b100000010010 V"
b101 2
b101 Q
b101 0
b101 ="
b10000001001 n
b10000001001 U"
b10000001001 X"
0:
b101 ^
b101 u
b101 R"
b101 7"
b101 <"
b101 I"
b101 P"
b1 e
b1 ;"
b1001 i
b10000001001 Y"
b100100 E"
b100100 M"
0y
b10 z
b10 A"
1r
0C
b10 B
b10 >"
1J
0H"
b1 ]
b1 t
b1 T"
b1001 S"
b110011 A
b1001 o
b10000 s
b1001010001000100010110011 ("
b1001010001000100010110011 +"
1R
1|
b10000 `
b10000 0"
b10000 O"
b0 2"
b0 G"
b101 1"
b101 F"
13"
b10100 X
b10100 _
b10100 /"
0O
0Z
0Y
b100000101110 >
b100000101110 B"
b11100 @
b11100 )"
b1000000100110000000100000110011 f
b1000000100110000000100000110011 m
b1000000100110000000100000110011 *"
b1000000100110000000100000110011 W"
b100100 <
b100100 C"
b100000 .
b100000 =
b100000 '"
b100000 ,"
b100000 N"
b1001 '
1$
#475
0$
#500
b100100 ?
b100100 V"
b100 2
b100 Q
b10010 n
b10010 U"
b10010 X"
b1 /
b1 L"
b0 7"
b0 <"
b0 I"
b0 P"
b10010 Y"
b110 1
b110 7
b1 V
b1 8"
b1 J"
b10001 j
b10010 i
b0 e
b0 ;"
b101000 E"
b101000 M"
b0 ^
b0 u
b0 R"
b10001 Q"
b10010 S"
b10001 p
b10010 o
b10001 s
1H"
b100000 4
b10010000100110010011 ("
b10010000100110010011 +"
b1000100 >
b1000100 B"
b100000 @
b100000 )"
b1001010001000100010110011 f
b1001010001000100010110011 m
b1001010001000100010110011 *"
b1001010001000100010110011 W"
b101 L
b101 [
b101 ."
b101 5"
b101 :"
1Z
b10100 `
b10100 0"
b10100 O"
0a
03"
b10 6
b10 {
1""
0|
b10000001001 %"
b10000001001 K"
b1 ~
b1 4"
b101 }
b101 9"
b10000 W
b10000 g
b10000 !"
b1001 b
b1001 $"
b1000000100110000000100000110011 3
b1000000100110000000100000110011 &"
b101000 <
b101000 C"
b100100 .
b100100 =
b100100 '"
b100100 ,"
b100100 N"
b1010 '
1$
#525
0$
#550
b0 ?
b0 V"
b0 n
b0 U"
b0 X"
b1 2
b1 Q
b10 1
b10 7
b101 7"
b101 <"
b101 I"
b101 P"
b0 0
b0 ="
b10010 j
b0 i
b0 Y"
b101100 E"
b101100 M"
1y
b0 z
b0 A"
0r
1C
b0 B
b0 >"
0J
b0 4
b1 ^
b1 u
b1 R"
b10010 Q"
b0 ]
b0 t
b0 T"
b0 S"
b10011 A
b10010 p
b0 o
b10011 s
b10001000100100010011 ("
b10001000100100010011 +"
b10010 %"
b10010 K"
b0 }
b0 9"
b10001 W
b10001 g
b10001 !"
b10010 b
b10010 $"
b10001 c
b10001 #"
b1001010001000100010110011 3
b1001010001000100010110011 &"
b101 2"
b101 G"
1a
b10000 X
b10000 _
b10000 /"
b1 M
b1 \
b100 L
b100 [
b100 ."
b100 5"
b100 :"
b100100 >
b100100 B"
b100100 @
b100100 )"
b10010000100110010011 f
b10010000100110010011 m
b10010000100110010011 *"
b10010000100110010011 W"
b101100 <
b101100 C"
b101000 .
b101000 =
b101000 '"
b101000 ,"
b101000 N"
b1011 '
1$
#575
0$
#600
1:
b100 7"
b100 <"
b100 I"
b100 P"
b0 /
b0 L"
b0 V
b0 8"
b0 J"
b1 0
b1 ="
b10001 j
b110000 E"
b110000 M"
b0 ^
b0 u
b0 R"
b10001 Q"
b10001 p
b10010 s
b10011000100010010011 ("
b10011000100010010011 +"
b101000 >
b101000 B"
b101000 @
b101000 )"
b10001000100100010011 f
b10001000100100010011 m
b10001000100100010011 *"
b10001000100100010011 W"
b10001 X
b10001 _
b10001 /"
b1 L
b1 [
b1 ."
b1 5"
b1 :"
b10000 `
b10000 0"
b10000 O"
b100 2"
b100 G"
b0 6
b0 {
0""
1|
b0 %"
b0 K"
b0 ~
b0 4"
b1 }
b1 9"
b10011 W
b10011 g
b10011 !"
b0 b
b0 $"
b10010 c
b10010 #"
b10010000100110010011 3
b10010000100110010011 &"
b110000 <
b110000 C"
b101100 .
b101100 =
b101100 '"
b101100 ,"
b101100 N"
b1100 '
1$
#625
0$
#650
b1 2
b1 Q
b1 0
b1 ="
b1 7"
b1 <"
b1 I"
b1 P"
b1 e
b1 ;"
b10011 j
b110100 E"
b110100 M"
b10011 Q"
b10011 p
b10001 s
b100010000000010001100011 ("
b100010000000010001100011 +"
b0 }
b0 9"
b10010 W
b10010 g
b10010 !"
b10001 c
b10001 #"
b10001000100100010011 3
b10001000100100010011 &"
b10001 `
b10001 0"
b10001 O"
b1 2"
b1 G"
b10011 X
b10011 _
b10011 /"
b0 M
b0 \
b101100 >
b101100 B"
b101100 @
b101100 )"
b10011000100010010011 f
b10011000100010010011 m
b10011000100010010011 *"
b10011000100010010011 W"
b110100 <
b110100 C"
b110000 .
b110000 =
b110000 '"
b110000 ,"
b110000 N"
b1101 '
1$
#675
0$
#700
b1000 ?
b1000 V"
b100 n
b100 U"
b100 X"
0:
b100 Y"
b10000 j
b1000 i
b111000 E"
b111000 M"
1D"
08
0q
0y
b1 z
b1 A"
1F
19
0K
0C
b1 B
b1 >"
b100 ^
b100 u
b100 R"
b10000 Q"
b1000 S"
b1100011 A
b10000 p
b1000 o
b1000 s
b11111110000000000000010011100011 ("
b11111110000000000000010011100011 +"
b111000 >
b111000 B"
b110000 @
b110000 )"
b100010000000010001100011 f
b100010000000010001100011 m
b100010000000010001100011 *"
b100010000000010001100011 W"
b10010 X
b10010 _
b10010 /"
b10011 `
b10011 0"
b10011 O"
b10001 W
b10001 g
b10001 !"
b10011 c
b10011 #"
b10011000100010010011 3
b10011000100010010011 &"
b111000 <
b111000 C"
b110100 .
b110100 =
b110100 '"
b110100 ,"
b110100 N"
b1110 '
1$
#725
0$
#750
b11111111111111111111111111101000 ?
b11111111111111111111111111101000 V"
b100 2
b100 Q
b100 0
b100 ="
b11111111111111111111111111110100 n
b11111111111111111111111111110100 U"
b11111111111111111111111111110100 X"
0D"
18
1:
b110 1
b110 7
b0 e
b0 ;"
b0 j
b0 i
b111111110100 Y"
b11100 E"
b11100 M"
b0 ^
b0 u
b0 R"
b0 Q"
b0 S"
b0 p
b0 o
b1001 s
b1000100100010001000100011 ("
b1000100100010001000100011 +"
0R
b1 6
b1 {
0|
b100 %"
b100 K"
b100 }
b100 9"
b1000 W
b1000 g
b1000 !"
b1000 b
b1000 $"
b10000 c
b10000 #"
b100010000000010001100011 3
b100010000000010001100011 &"
b10010 `
b10010 0"
b10010 O"
b10001 X
b10001 _
b10001 /"
b11100 >
b11100 B"
b110100 @
b110100 )"
b11111110000000000000010011100011 f
b11111110000000000000010011100011 m
b11111110000000000000010011100011 *"
b11111110000000000000010011100011 W"
b111100 <
b111100 C"
b111000 .
b111000 =
b111000 '"
b111000 ,"
b111000 N"
b1111 '
1$
#775
0$
#800
b0 ?
b0 V"
b0 n
b0 U"
b0 X"
b0 2
b0 Q
b0 Y"
b0 0
b0 ="
b100000 E"
b100000 M"
1D"
08
b0 z
b0 A"
0F
09
b0 B
b0 >"
b0 A
b0 s
b1111111 4
b1000000100110000000100000110011 ("
b1000000100110000000100000110011 +"
b111000 >
b111000 B"
b111000 @
b111000 )"
b0 f
b0 m
b0 *"
b0 W"
b1000 X
b1000 _
b1000 /"
b100 L
b100 [
b100 ."
b100 5"
b100 :"
0Z
b10001 `
b10001 0"
b10001 O"
b11111111111111111111111111110100 %"
b11111111111111111111111111110100 K"
b0 }
b0 9"
b1001 W
b1001 g
b1001 !"
b0 b
b0 $"
b0 c
b0 #"
b11111110000000000000010011100011 3
b11111110000000000000010011100011 &"
b100000 <
b100000 C"
b11100 .
b11100 =
b11100 '"
b11100 ,"
b11100 N"
b1 (
b10000 '
1$
#825
0$
#850
b100000010010 ?
b100000010010 V"
b10000001001 n
b10000001001 U"
b10000001001 X"
0:
b10 1
b10 7
b100 7"
b100 <"
b100 I"
b100 P"
b10000 j
b1001 i
b10000001001 Y"
b100100 E"
b100100 M"
1q
b10 z
b10 A"
1r
1K
b10 B
b10 >"
1J
b0 4
b100 ^
b100 u
b100 R"
b10000 Q"
b1 ]
b1 t
b1 T"
b1001 S"
b110011 A
b10000 p
b1001 o
b10000 s
b1001010001000100010110011 ("
b1001010001000100010110011 +"
b0 6
b0 {
b0 %"
b0 K"
b0 W
b0 g
b0 !"
b0 3
b0 &"
b1000 `
b1000 0"
b1000 O"
b100 2"
b100 G"
0a
b1001 X
b1001 _
b1001 /"
b0 L
b0 [
b0 ."
b0 5"
b0 :"
b100000101110 >
b100000101110 B"
b11100 @
b11100 )"
b1000000100110000000100000110011 f
b1000000100110000000100000110011 m
b1000000100110000000100000110011 *"
b1000000100110000000100000110011 W"
b100100 <
b100100 C"
b100000 .
b100000 =
b100000 '"
b100000 ,"
b100000 N"
b10001 '
1$
#875
0$
#900
b100100 ?
b100100 V"
b10010 n
b10010 U"
b10010 X"
b1 /
b1 L"
b11 2
b11 Q
1:
b10010 Y"
b0 7"
b0 <"
b0 I"
b0 P"
b110 1
b110 7
b1 V
b1 8"
b1 J"
b100 0
b100 ="
b10001 j
b10010 i
b101000 E"
b101000 M"
b1 ^
b1 u
b1 R"
b10001 Q"
b10010 S"
b10001 p
b10010 o
b10001 s
b100000 4
b10010000100110010011 ("
b10010000100110010011 +"
b1000100 >
b1000100 B"
b100000 @
b100000 )"
b1001010001000100010110011 f
b1001010001000100010110011 m
b1001010001000100010110011 *"
b1001010001000100010110011 W"
b0 X
b0 _
b0 /"
b1001 `
b1001 0"
b1001 O"
b0 2"
b0 G"
1R
b10 6
b10 {
1""
b10000001001 %"
b10000001001 K"
b1 ~
b1 4"
b100 }
b100 9"
b10000 W
b10000 g
b10000 !"
b1001 b
b1001 $"
b10000 c
b10000 #"
b1000000100110000000100000110011 3
b1000000100110000000100000110011 &"
b101000 <
b101000 C"
b100100 .
b100100 =
b100100 '"
b100100 ,"
b100100 N"
b10010 '
1$
#925
0$
#950
b0 ?
b0 V"
b0 n
b0 U"
b0 X"
b10 2
b10 Q
b10 1
b10 7
0:
b1 0
b1 ="
b10010 j
b0 i
b0 Y"
b101100 E"
b101100 M"
1y
b0 z
b0 A"
0r
1C
b0 B
b0 >"
0J
b0 4
b10010 Q"
b0 ]
b0 t
b0 T"
b0 S"
b10011 A
b10010 p
b0 o
b10011 s
b10001000100100010011 ("
b10001000100100010011 +"
b10010 %"
b10010 K"
b1 }
b1 9"
b10001 W
b10001 g
b10001 !"
b10010 b
b10010 $"
b10001 c
b10001 #"
b1001010001000100010110011 3
b1001010001000100010110011 &"
b0 `
b0 0"
b0 O"
b10000 X
b10000 _
b10000 /"
b1 M
b1 \
b11 L
b11 [
b11 ."
b11 5"
b11 :"
1Z
b100100 >
b100100 B"
b100100 @
b100100 )"
b10010000100110010011 f
b10010000100110010011 m
b10010000100110010011 *"
b10010000100110010011 W"
b101100 <
b101100 C"
b101000 .
b101000 =
b101000 '"
b101000 ,"
b101000 N"
b10011 '
1$
#975
0$
#1000
b1 2
b1 Q
b11 7"
b11 <"
b11 I"
b11 P"
b0 /
b0 L"
b0 V
b0 8"
b0 J"
b10001 j
b110000 E"
b110000 M"
b10001 Q"
b10001 p
b10010 s
b10011000100010010011 ("
b10011000100010010011 +"
b101000 >
b101000 B"
b101000 @
b101000 )"
b10001000100100010011 f
b10001000100100010011 m
b10001000100100010011 *"
b10001000100100010011 W"
b10001 X
b10001 _
b10001 /"
b10 L
b10 [
b10 ."
b10 5"
b10 :"
b10000 `
b10000 0"
b10000 O"
b11 2"
b11 G"
1a
b0 6
b0 {
0""
1|
b0 %"
b0 K"
b0 ~
b0 4"
b10011 W
b10011 g
b10011 !"
b0 b
b0 $"
b10010 c
b10010 #"
b10010000100110010011 3
b10010000100110010011 &"
b110000 <
b110000 C"
b101100 .
b101100 =
b101100 '"
b101100 ,"
b101100 N"
b10100 '
1$
#1025
0$
#1050
b10 2
b10 Q
b10 0
b10 ="
b10 7"
b10 <"
b10 I"
b10 P"
b1 e
b1 ;"
b10011 j
b110100 E"
b110100 M"
b10011 Q"
b10011 p
b10001 s
b100010000000010001100011 ("
b100010000000010001100011 +"
b10010 W
b10010 g
b10010 !"
b10001 c
b10001 #"
b10001000100100010011 3
b10001000100100010011 &"
b10001 `
b10001 0"
b10001 O"
b10 2"
b10 G"
b10011 X
b10011 _
b10011 /"
b0 M
b0 \
b1 L
b1 [
b1 ."
b1 5"
b1 :"
b101100 >
b101100 B"
b101100 @
b101100 )"
b10011000100010010011 f
b10011000100010010011 m
b10011000100010010011 *"
b10011000100010010011 W"
b110100 <
b110100 C"
b110000 .
b110000 =
b110000 '"
b110000 ,"
b110000 N"
b10101 '
1$
#1075
0$
#1100
b1000 ?
b1000 V"
b1 2
b1 Q
b100 n
b100 U"
b100 X"
b1 0
b1 ="
b100 Y"
b1 7"
b1 <"
b1 I"
b1 P"
b10000 j
b1000 i
b111000 E"
b111000 M"
0q
0y
b1 z
b1 A"
1F
19
0K
0C
b1 B
b1 >"
b11 ^
b11 u
b11 R"
b10000 Q"
b1000 S"
b1100011 A
b10000 p
b1000 o
b1000 s
b11111110000000000000010011100011 ("
b11111110000000000000010011100011 +"
b111000 >
b111000 B"
b110000 @
b110000 )"
b100010000000010001100011 f
b100010000000010001100011 m
b100010000000010001100011 *"
b100010000000010001100011 W"
b10010 X
b10010 _
b10010 /"
b10 L
b10 [
b10 ."
b10 5"
b10 :"
b10011 `
b10011 0"
b10011 O"
b1 2"
b1 G"
b10001 W
b10001 g
b10001 !"
b10011 c
b10011 #"
b10011000100010010011 3
b10011000100010010011 &"
b111000 <
b111000 C"
b110100 .
b110100 =
b110100 '"
b110100 ,"
b110100 N"
b10110 '
1$
#1125
0$
