project_2/test.vcd
$date
	Mon Dec 31 13:17:06 2018
$end
$version
	Icarus Verilog
$end
$timescale
	1s
$end
$scope module OR $end
$var wire 1 ! data1_i $end
$var wire 1 " data2_i $end
$var wire 1 # data_o $end
$upscope $end
$scope module TestBench $end
$var wire 256 $ mem_cpu_data [255:0] $end
$var wire 1 % mem_cpu_ack $end
$var wire 1 & cpu_mem_write $end
$var wire 1 ' cpu_mem_enable $end
$var wire 256 ( cpu_mem_data [255:0] $end
$var wire 32 ) cpu_mem_addr [31:0] $end
$var reg 1 * Clk $end
$var reg 1 + Reset $end
$var reg 1 , Start $end
$var reg 27 - address [26:0] $end
$var reg 1 . flag $end
$var reg 5 / index [4:0] $end
$var reg 24 0 tag [23:0] $end
$var integer 32 1 counter [31:0] $end
$var integer 32 2 i [31:0] $end
$var integer 32 3 outfile [31:0] $end
$var integer 32 4 outfile2 [31:0] $end
$scope module CPU $end
$var wire 1 * clk_i $end
$var wire 1 + rst_i $end
$var wire 1 , start_i $end
$var wire 1 & mem_write_o $end
$var wire 1 ' mem_enable_o $end
$var wire 256 5 mem_data_o [255:0] $end
$var wire 256 6 mem_data_i [255:0] $end
$var wire 32 7 mem_addr_o [31:0] $end
$var wire 1 % mem_ack_i $end
$var wire 32 8 inst_addr [31:0] $end
$scope module ALU $end
$var wire 32 9 data2_i [31:0] $end
$var wire 32 : data1_i [31:0] $end
$var wire 3 ; ALUCtrl_i [2:0] $end
$var reg 32 < data_o [31:0] $end
$upscope $end
$scope module ALU_Control $end
$var wire 32 = funct_i [31:0] $end
$var wire 7 > funct7 [6:0] $end
$var wire 3 ? funct3 [2:0] $end
$var wire 2 @ ALUOp_i [1:0] $end
$var reg 3 A ALUCtrl_o [2:0] $end
$upscope $end
$scope module AND $end
$var wire 1 B data_o $end
$var wire 1 C data2_i $end
$var wire 1 D data1_i $end
$upscope $end
$scope module Add_PC $end
$var wire 32 E data2_in [31:0] $end
$var wire 32 F data_o [31:0] $end
$var wire 32 G data1_in [31:0] $end
$upscope $end
$scope module Add_notPC $end
$var wire 32 H data_o [31:0] $end
$var wire 32 I data2_in [31:0] $end
$var wire 32 J data1_in [31:0] $end
$upscope $end
$scope module Control $end
$var wire 7 K Op_i [6:0] $end
$var reg 2 L ALUOp_o [1:0] $end
$var reg 1 M ALUSrc_o $end
$var reg 1 N EX_Flush_o $end
$var reg 1 O ID_Flush_o $end
$var reg 1 P IF_Flush_o $end
$var reg 1 C IsBranch_o $end
$var reg 1 Q MemRead_o $end
$var reg 1 R MemToReg_o $end
$var reg 1 S MemWrite_o $end
$var reg 1 T RegDst_o $end
$var reg 1 U RegWrite_o $end
$upscope $end
$scope module EXMEM $end
$var wire 32 V ALU_i [31:0] $end
$var wire 1 * clk_i $end
$var wire 1 W stall_i $end
$var wire 1 X RegWrite_i $end
$var wire 1 Y MemWrite_i $end
$var wire 1 Z MemToReg_i $end
$var wire 1 [ MemRead_i $end
$var wire 32 \ MUXdown_i [31:0] $end
$var wire 5 ] IDEX_i [4:0] $end
$var reg 5 ^ MEMWB_o [4:0] $end
$var reg 1 _ MemRead_o $end
$var reg 1 ` MemToReg_o $end
$var reg 1 a MemWrite_o $end
$var reg 1 b RegWrite_o $end
$var reg 32 c data1_o [31:0] $end
$var reg 32 d data2_o [31:0] $end
$upscope $end
$scope module Equal $end
$var wire 32 e data2_i [31:0] $end
$var wire 32 f data1_i [31:0] $end
$var reg 1 D data_o $end
$upscope $end
$scope module Forward $end
$var wire 1 b EXMEMRegWrite_i $end
$var wire 5 g EXMEMforward_i [4:0] $end
$var wire 5 h MEMforward_i [4:0] $end
$var wire 1 i MEMWBRegWrite_i $end
$var wire 5 j IDEX2_i [4:0] $end
$var wire 5 k IDEX1_i [4:0] $end
$var reg 2 l MUXdown_o [1:0] $end
$var reg 2 m MUXup_o [1:0] $end
$upscope $end
$scope module Hazard $end
$var wire 32 n IFID_i [31:0] $end
$var wire 5 o IDEX_i [4:0] $end
$var wire 1 [ IDEXM_i $end
$var reg 1 p IFID_o $end
$var reg 5 q IFID_rs [4:0] $end
$var reg 5 r IFID_rt [4:0] $end
$var reg 1 s OR_o $end
$var reg 1 t PCSelect_o $end
$upscope $end
$scope module IDEX $end
$var wire 1 * clk_i $end
$var wire 1 W stall_i $end
$var wire 32 u inst_i [31:0] $end
$var wire 32 v SignExtended_i [31:0] $end
$var wire 5 w Rs2_i [4:0] $end
$var wire 5 x Rs1_i [4:0] $end
$var wire 1 y RegWrite_i $end
$var wire 1 z RegDst_i $end
$var wire 5 { Rd_i [4:0] $end
$var wire 32 | RTData_i [31:0] $end
$var wire 32 } RSData_i [31:0] $end
$var wire 1 ~ MemWrite_i $end
$var wire 1 !" MemToReg_i $end
$var wire 1 "" MemRead_i $end
$var wire 1 #" ALUSrc_i $end
$var wire 2 $" ALUOp_i [1:0] $end
$var reg 2 %" ALUOp_o [1:0] $end
$var reg 1 &" ALUSrc_o $end
$var reg 1 [ MemRead_o $end
$var reg 1 Z MemToReg_o $end
$var reg 1 Y MemWrite_o $end
$var reg 32 '" RSData_o [31:0] $end
$var reg 32 (" RTData_o [31:0] $end
$var reg 5 )" Rd_o [4:0] $end
$var reg 1 *" RegDst_o $end
$var reg 1 X RegWrite_o $end
$var reg 5 +" Rs1_o [4:0] $end
$var reg 5 ," Rs2_o [4:0] $end
$var reg 32 -" SignExtended_o [31:0] $end
$var reg 32 ." inst_o [31:0] $end
$upscope $end
$scope module IFID $end
$var wire 1 p IFIDWrite_i $end
$var wire 1 B IFflush_i $end
$var wire 1 * clk_i $end
$var wire 1 W stall_i $end
$var wire 32 /" pc_i [31:0] $end
$var wire 32 0" instr_i [31:0] $end
$var reg 32 1" addnotPC_o [31:0] $end
$var reg 32 2" instr_o [31:0] $end
$upscope $end
$scope module Instruction_Memory $end
$var wire 32 3" instr_o [31:0] $end
$var wire 32 4" addr_i [31:0] $end
$upscope $end
$scope module MEMWB $end
$var wire 1 ` MemToReg_i $end
$var wire 1 b RegWrite_i $end
$var wire 1 * clk_i $end
$var wire 32 5" data2_i [31:0] $end
$var wire 5 6" data3_i [4:0] $end
$var wire 1 W stall_i $end
$var wire 32 7" data1_i [31:0] $end
$var reg 5 8" Forward_o [4:0] $end
$var reg 32 9" MUX1_o [31:0] $end
$var reg 32 :" MUX2_o [31:0] $end
$var reg 1 ;" MemToReg_o $end
$var reg 1 i RegWrite_o $end
$upscope $end
$scope module MUX4to1down $end
$var wire 32 <" data1_i [31:0] $end
$var wire 32 =" data3_i [31:0] $end
$var wire 2 >" select_i [1:0] $end
$var wire 32 ?" data2_i [31:0] $end
$var reg 32 @" data_o [31:0] $end
$upscope $end
$scope module MUX4to1up $end
$var wire 32 A" data1_i [31:0] $end
$var wire 32 B" data3_i [31:0] $end
$var wire 2 C" select_i [1:0] $end
$var wire 32 D" data2_i [31:0] $end
$var reg 32 E" data_o [31:0] $end
$upscope $end
$scope module MUX8 $end
$var wire 2 F" ALUOp_i [1:0] $end
$var wire 1 M ALUSrc_i $end
$var wire 1 s IsHazard_i $end
$var wire 1 Q MemRead_i $end
$var wire 1 R MemToReg_i $end
$var wire 1 S MemWrite_i $end
$var wire 1 T RegDst_i $end
$var wire 1 U RegWrite_i $end
$var wire 1 G" isBranch_i $end
$var wire 1 H" isBranch_o $end
$var wire 1 y RegWrite_o $end
$var wire 1 z RegDst_o $end
$var wire 1 ~ MemWrite_o $end
$var wire 1 !" MemToReg_o $end
$var wire 1 "" MemRead_o $end
$var wire 1 #" ALUSrc_o $end
$var wire 2 I" ALUOp_o [1:0] $end
$upscope $end
$scope module MUX_PC $end
$var wire 32 J" data1_i [31:0] $end
$var wire 32 K" data2_i [31:0] $end
$var wire 1 L" select_i $end
$var reg 32 M" data_o [31:0] $end
$upscope $end
$scope module MUX_final $end
$var wire 32 N" data1_i [31:0] $end
$var wire 32 O" data2_i [31:0] $end
$var wire 1 P" select_i $end
$var reg 32 Q" data_o [31:0] $end
$upscope $end
$scope module MUX_immediate $end
$var wire 32 R" data1_i [31:0] $end
$var wire 32 S" data2_i [31:0] $end
$var wire 1 &" select_i $end
$var reg 32 T" data_o [31:0] $end
$upscope $end
$scope module PC $end
$var wire 1 * clk_i $end
$var wire 1 t pcEnable_i $end
$var wire 32 U" pc_i [31:0] $end
$var wire 1 + rst_i $end
$var wire 1 , start_i $end
$var wire 1 W stall_i $end
$var reg 32 V" pc_o [31:0] $end
$upscope $end
$scope module Registers $end
$var wire 5 W" RDaddr_i [4:0] $end
$var wire 32 X" RDdata_i [31:0] $end
$var wire 5 Y" RSaddr_i [4:0] $end
$var wire 32 Z" RSdata_o [31:0] $end
$var wire 5 [" RTaddr_i [4:0] $end
$var wire 32 \" RTdata_o [31:0] $end
$var wire 1 i RegWrite_i $end
$var wire 1 * clk_i $end
$upscope $end
$scope module ShiftLeft $end
$var wire 32 ]" data_i [31:0] $end
$var reg 32 ^" data_o [31:0] $end
$upscope $end
$scope module Sign_Extend $end
$var wire 32 _" data_i [31:0] $end
$var wire 1 P isflush_i $end
$var wire 1 S memwrite_i $end
$var reg 32 `" data_o [31:0] $end
$var reg 12 a" imm [11:0] $end
$upscope $end
$scope module dcache $end
$var wire 1 b" cache_dirty $end
$var wire 1 c" cache_sram_enable $end
$var wire 5 d" cache_sram_index [4:0] $end
$var wire 1 e" cache_sram_write $end
$var wire 1 * clk_i $end
$var wire 256 f" mem_data_o [255:0] $end
$var wire 1 ' mem_enable_o $end
$var wire 1 & mem_write_o $end
$var wire 1 _ p1_MemRead_i $end
$var wire 1 a p1_MemWrite_i $end
$var wire 32 g" p1_addr_i [31:0] $end
$var wire 32 h" p1_data_i [31:0] $end
$var wire 32 i" p1_data_o [31:0] $end
$var wire 1 j" p1_req $end
$var wire 1 W p1_stall_o $end
$var wire 256 k" r_hit_data [255:0] $end
$var wire 1 + rst_i $end
$var wire 1 l" write_hit $end
$var wire 1 m" sram_valid $end
$var wire 22 n" sram_tag [21:0] $end
$var wire 1 o" sram_dirty $end
$var wire 24 p" sram_cache_tag [23:0] $end
$var wire 256 q" sram_cache_data [255:0] $end
$var wire 22 r" p1_tag [21:0] $end
$var wire 5 s" p1_offset [4:0] $end
$var wire 5 t" p1_index [4:0] $end
$var wire 256 u" mem_data_i [255:0] $end
$var wire 32 v" mem_addr_o [31:0] $end
$var wire 1 % mem_ack_i $end
$var wire 1 w" hit $end
$var wire 24 x" cache_sram_tag [23:0] $end
$var wire 256 y" cache_sram_data [255:0] $end
$var reg 1 z" cache_we $end
$var reg 1 {" mem_enable $end
$var reg 1 |" mem_write $end
$var reg 32 }" p1_data [31:0] $end
$var reg 3 ~" state [2:0] $end
$var reg 256 !# temp_r_hit [255:0] $end
$var reg 256 "# temp_w_hit1 [255:0] $end
$var reg 256 ## temp_w_hit2 [255:0] $end
$var reg 256 $# w_hit_data [255:0] $end
$var reg 1 %# write_back $end
$scope module dcache_data_sram $end
$var wire 5 &# addr_i [4:0] $end
$var wire 1 * clk_i $end
$var wire 256 '# data_i [255:0] $end
$var wire 1 c" enable_i $end
$var wire 1 e" write_i $end
$var wire 256 (# data_o [255:0] $end
$upscope $end
$scope module dcache_tag_sram $end
$var wire 5 )# addr_i [4:0] $end
$var wire 1 * clk_i $end
$var wire 24 *# data_i [23:0] $end
$var wire 1 c" enable_i $end
$var wire 1 e" write_i $end
$var wire 24 +# data_o [23:0] $end
$upscope $end
$upscope $end
$upscope $end
$scope module Data_Memory $end
$var wire 1 ,# ack $end
$var wire 1 % ack_o $end
$var wire 32 -# addr_i [31:0] $end
$var wire 1 * clk_i $end
$var wire 256 .# data_i [255:0] $end
$var wire 256 /# data_o [255:0] $end
$var wire 1 ' enable_i $end
$var wire 1 + rst_i $end
$var wire 1 & write_i $end
$var wire 27 0# addr [26:0] $end
$var reg 4 1# count [3:0] $end
$var reg 256 2# data [255:0] $end
$var reg 2 3# state [1:0] $end
$var reg 1 4# write_reg $end
$upscope $end
$upscope $end
$enddefinitions $end
#0
$dumpvars
x4#
b0 3#
bx 2#
bx 1#
b0 0#
bx /#
b0 .#
b0 -#
0,#
b0 +#
b100000000000000000000000 *#
b0 )#
b0 (#
bx '#
b0 &#
0%#
b0 $#
b0 ##
b0 "#
b0 !#
b0 ~"
b0 }"
0|"
0{"
0z"
bx y"
b100000000000000000000000 x"
0w"
b0 v"
bx u"
b0 t"
b0 s"
b0 r"
b0 q"
b0 p"
0o"
b0 n"
0m"
0l"
b0 k"
0j"
b0 i"
b0 h"
b0 g"
b0 f"
0e"
b0 d"
0c"
0b"
b0 a"
b0 `"
b0 _"
b0 ^"
b0 ]"
b0 \"
b0 ["
b0 Z"
b0 Y"
b0 X"
b0 W"
b0 V"
b100 U"
b0 T"
b0 S"
b0 R"
b0 Q"
1P"
b0 O"
b0 N"
b100 M"
1L"
b100 K"
b0 J"
b0 I"
zH"
zG"
b0 F"
b0 E"
b0 D"
b0 C"
b0 B"
b0 A"
b0 @"
b0 ?"
b0 >"
b0 ="
b0 <"
0;"
b0 :"
b0 9"
b0 8"
b0 7"
b0 6"
b0 5"
b0 4"
b10000010011 3"
b0 2"
b0 1"
b10000010011 0"
b0 /"
b0 ."
b0 -"
b0 ,"
b0 +"
0*"
b0 )"
b0 ("
b0 '"
0&"
b0 %"
b0 $"
0#"
0""
0!"
0~
b0 }
b0 |
b0 {
0z
0y
b0 x
b0 w
b0 v
b0 u
1t
0s
b0 r
b0 q
1p
b0 o
b0 n
b0 m
b0 l
b0 k
b0 j
0i
b0 h
b0 g
b0 f
b0 e
b0 d
b0 c
0b
0a
0`
0_
b0 ^
b0 ]
b0 \
0[
0Z
0Y
0X
0W
b0 V
0U
0T
0S
0R
0Q
0P
xO
xN
0M
b0 L
b0 K
b0 J
b0 I
b0 H
b0 G
b100 F
b100 E
1D
0C
0B
b10 A
b0 @
b0 ?
b0 >
b0 =
b0 <
b10 ;
b0 :
b0 9
b0 8
b0 7
bx 6
b0 5
b101 4
b11 3
b100000 2
b1 1
bx 0
bx /
x.
bx -
0,
0+
0*
b0 )
b0 (
0'
0&
0%
bx $
x#
z"
z!
$end
#12
1,
1+
#25
b1000 M"
b1000 U"
1y
1#"
1U
1M
b10011 K
b1000 {
b100000000010000000100011 0"
b100000000010000000100011 3"
b10000010011 n
b10000010011 u
b10000010011 2"
b10000010011 _"
b0 1#
04#
b1000 F
b1000 K"
b100 8
b100 G
b100 /"
b100 4"
b100 V"
b10 1
0.
1*
#50
0*
#75
b1000 q
b0 a"
b1100 M"
b1100 U"
0y
1~
0U
1S
b1000 ["
b100011 K
b1000 w
b0 {
b10001000100000000010000010011 0"
b10001000100000000010000010011 3"
1X
1&"
b1000 ]
b1000 o
b1000 )"
b10000010011 =
b10000010011 ."
b100 H
b100 J"
b100 J
b100 1"
b100000000010000000100011 n
b100000000010000000100011 u
b100000000010000000100011 2"
b100000000010000000100011 _"
b1100 F
b1100 K"
b1000 8
b1000 G
b1000 /"
b1000 4"
b1000 V"
b11 1
1*
#100
0*
#125
b1000100010 I
b1000100010 ^"
b100010001 v
b100010001 ]"
b100010001 `"
b100010001 a"
b10001 q
b10 l
b10 >"
b10000 M"
b10000 U"
1y
0~
1U
0S
b10 ?
b10001 ["
b10011 K
b10001 w
b1000 {
b100000000010001000100011 0"
b100000000010001000100011 3"
b1000101010 H
b1000101010 J"
b1000 J
b1000 1"
b10001000100000000010000010011 n
b10001000100000000010000010011 u
b10001000100000000010000010011 2"
b10001000100000000010000010011 _"
b1000 ^
b1000 g
b1000 6"
1b
0X
1Y
b0 ]
b0 o
b0 )"
b1000 j
b1000 ,"
b100000000010000000100011 =
b100000000010000000100011 ."
b10000 F
b10000 K"
b1100 8
b1100 G
b1100 /"
b1100 4"
b1100 V"
b100 1
1*
#150
0*
#175
b1000 I
b1000 ^"
b100 v
b100 ]"
b100 `"
b100010001 <
b100010001 V
b100010001 9
b100010001 T"
b0 l
b0 >"
b1000 q
b100 a"
b10100 M"
b10100 U"
0y
1~
b0 ?
1W
0U
1S
b1000 >
1c"
1j"
b1000 ["
b100011 K
b1000 w
b100 {
b100010001000000000010000010011 0"
b100010001000000000010000010011 3"
1X
0Y
b100010001 -"
b100010001 S"
b1000 ]
b1000 o
b1000 )"
b10001 j
b10001 ,"
b10001000100000000010000010011 =
b10001000100000000010000010011 ."
b1000 h
b1000 8"
b1000 W"
1i
b0 ^
b0 g
b0 6"
1a
0b
b10100 H
b10100 J"
b1100 J
b1100 1"
b100000000010001000100011 n
b100000000010001000100011 u
b100000000010001000100011 2"
b100000000010001000100011 _"
b10100 F
b10100 K"
b10000 8
b10000 G
b10000 /"
b10000 4"
b10000 V"
b101 1
1*
#200
0*
#225
b100 ~"
b110 1
1.
1*
#250
0*
#275
b1 ~"
1'
1{"
b111 1
1*
#300
0*
#325
b1 3#
b1000 1
1*
#350
0*
#375
b1 1#
b1001 1
1*
#400
0*
#425
b10 1#
b1010 1
1*
#450
0*
#475
b11 1#
b1011 1
1*
#500
0*
#525
b100 1#
b1100 1
1*
#550
0*
#575
b101 1#
b1101 1
1*
#600
0*
#625
b110 1#
b1110 1
1*
#650
0*
#675
1%
1,#
b111 1#
b1111 1
1*
#700
0*
#725
0%
0,#
1e"
b0 3#
b1000 1#
b10 ~"
1z"
0'
0{"
b101 y"
b101 '#
b101 $
b101 6
b101 u"
b101 /#
b101 2#
b10000 1
1*
#750
0*
#775
0W
b0 y"
b0 '#
b110000000000000000000000 x"
b110000000000000000000000 *#
1b"
1l"
1w"
b0 "#
b101 7"
b101 i"
b101 }"
b101 !#
1m"
b101 k"
b101 (
b101 5
b101 f"
b101 .#
b101 q"
b101 (#
b100000000000000000000000 p"
b100000000000000000000000 +#
1e"
b0 1#
b0 ~"
0z"
b10001 1
1*
#800
0*
#825
b10001000100 I
b10001000100 ^"
b1000100010 v
b1000100010 ]"
b1000100010 `"
b100010001 \
b100010001 @"
b100010001 R"
b100 <
b100 V
b1000100010 a"
b100 9
b100 T"
b10 q
b10 l
b10 >"
b11000 M"
b11000 U"
b101 y"
b101 '#
0w"
b1000 0#
1y
0~
0m"
1U
0S
b0 "#
b0 7"
b0 i"
b0 }"
b0 !#
b100000000 )
b100000000 7
b100000000 v"
b100000000 -#
0e"
b10 ?
b0 p"
b0 +#
b0 k"
b0 (
b0 5
b0 f"
b0 .#
b0 q"
b0 (#
b10 ["
b10011 K
b10 w
b1000 {
b10001 s"
b1000 d"
b1000 &#
b1000 )#
b1000 t"
0c"
0j"
b100000000000000000000000 x"
b100000000000000000000000 *#
0b"
0l"
b0 >
b100000000010010000100011 0"
b100000000010010000100011 3"
b10001010100 H
b10001010100 J"
b10000 J
b10000 1"
b100010001000000000010000010011 n
b100010001000000000010000010011 u
b100010001000000000010000010011 2"
b100010001000000000010000010011 _"
b1000 ^
b1000 g
b1000 6"
b100010001 c
b100010001 5"
b100010001 ="
b100010001 B"
b100010001 g"
0a
1b
b0 h
b0 8"
b0 W"
b101 9"
b101 N"
0i
0X
1Y
b100 -"
b100 S"
b100 ]
b100 o
b100 )"
b1000 j
b1000 ,"
b100000000010001000100011 =
b100000000010001000100011 ."
b11000 F
b11000 K"
b10100 8
b10100 G
b10100 /"
b10100 4"
b10100 V"
b10010 1
0.
1*
#850
0*
#875
0D
b10000 I
b10000 ^"
b100010001 e
b100010001 |
b100010001 \"
b1000 v
b1000 ]"
b1000 `"
b1000100010 <
b1000100010 V
b1000100010 9
b1000100010 T"
b100010001 ?"
b100010001 D"
b100010001 Q"
b100010001 X"
b0 \
b0 @"
b0 R"
b0 l
b0 >"
b1000 q
b1000 a"
b11100 M"
b11100 U"
1e"
b10001000100000000000000000000000000000000 y"
b10001000100000000000000000000000000000000 '#
b110000000000000000000000 x"
b110000000000000000000000 *#
1b"
1l"
1w"
b0 0#
1o"
1m"
0y
1~
b0 ?
b0 )
b0 7
b0 v"
b0 -#
0W
b110000000000000000000000 p"
b110000000000000000000000 +#
0U
1S
b10001 >
b10001000100000000000000000000000000000000 $#
b10001000100000000000000000000000000000000 ##
b0 "#
b100 s"
b0 d"
b0 &#
b0 )#
b0 t"
1c"
1j"
b1000 ["
b100011 K
b1000 w
b110011001100000000010000010011 0"
b110011001100000000010000010011 3"
1X
0Y
b1000100010 -"
b1000100010 S"
b1000 ]
b1000 o
b1000 )"
b10 j
b10 ,"
b100010001000000000010000010011 =
b100010001000000000010000010011 ."
b1000 h
b1000 8"
b1000 W"
b100010001 :"
b100010001 O"
b0 9"
b0 N"
1i
b100 ^
b100 g
b100 6"
b100010001 d
b100010001 h"
b100 c
b100 5"
b100 ="
b100 B"
b100 g"
1a
0b
b100100 H
b100100 J"
b10100 J
b10100 1"
b100000000010010000100011 n
b100000000010010000100011 u
b100000000010010000100011 2"
b100000000010010000100011 _"
b11100 F
b11100 K"
b11000 8
b11000 G
b11000 /"
b11000 4"
b11000 V"
b10011 1
1*
#900
0*
#925
b11001100110 I
b11001100110 ^"
b1100110011 v
b1100110011 ]"
b1100110011 `"
b1000 <
b1000 V
1D
b10011 q
b1100110011 a"
b100 ?"
b100 D"
b100 Q"
b100 X"
b1000 9
b1000 T"
b1000100010 \
b1000100010 @"
b1000100010 R"
b10 l
b10 >"
b100000 M"
b100000 U"
0w"
b10001 0#
1y
0~
0o"
0m"
1U
0S
b101 y"
b101 '#
b1000100000 )
b1000100000 7
b1000100000 v"
b1000100000 -#
b0 p"
b0 +#
0e"
b10 ?
b0 e
b0 |
b0 \"
b10011 ["
b10011 K
b10011 w
b0 $#
b0 ##
b0 "#
b10 s"
b10001 d"
b10001 &#
b10001 )#
b10001 t"
0c"
0j"
b100000000000000000000000 x"
b100000000000000000000000 *#
0b"
0l"
b0 >
b100000000010011000100011 0"
b100000000010011000100011 3"
b11001111110 H
b11001111110 J"
b11000 J
b11000 1"
b110011001100000000010000010011 n
b110011001100000000010000010011 u
b110011001100000000010000010011 2"
b110011001100000000010000010011 _"
b1000 ^
b1000 g
b1000 6"
b0 d
b0 h"
b1000100010 c
b1000100010 5"
b1000100010 ="
b1000100010 B"
b1000100010 g"
0a
1b
b100 h
b100 8"
b100 W"
b100 :"
b100 O"
0i
0X
1Y
b1000 -"
b1000 S"
b100010001 ("
b100010001 <"
b1000 j
b1000 ,"
b100000000010010000100011 =
b100000000010010000100011 ."
b100000 F
b100000 K"
b11100 8
b11100 G
b11100 /"
b11100 4"
b11100 V"
b10100 1
1*
#950
0*
#975
b11000 I
b11000 ^"
b1100 v
b1100 ]"
b1100 `"
b1100110011 <
b1100110011 V
0D
b1100110011 9
b1100110011 T"
b1000100010 ?"
b1000100010 D"
b1000100010 Q"
b1000100010 X"
b0 \
b0 @"
b0 R"
b0 l
b0 >"
b1000 q
b1100 a"
b100100 M"
b100100 U"
1e"
b10001000100000000000000000000000010001000100000000000000000000000000000000 y"
b10001000100000000000000000000000010001000100000000000000000000000000000000 '#
b110000000000000000000000 x"
b110000000000000000000000 *#
1b"
1l"
1w"
b0 0#
1o"
1m"
0y
1~
b0 ?
b0 )
b0 7
b0 v"
b0 -#
0W
b10001000100000000000000000000000000000000 k"
b10001000100000000000000000000000000000000 (
b10001000100000000000000000000000000000000 5
b10001000100000000000000000000000000000000 f"
b10001000100000000000000000000000000000000 .#
b10001000100000000000000000000000000000000 q"
b10001000100000000000000000000000000000000 (#
b110000000000000000000000 p"
b110000000000000000000000 +#
0U
1S
b11001 >
b10001000100000000000000000000000010001000100000000000000000000000000000000 $#
b10001000100000000000000000000000000000000000000000000000000000000000000000 ##
b10001000100000000000000000000000000000000 "#
b1000 s"
b0 d"
b0 &#
b0 )#
b0 t"
1c"
1j"
b1000100010 e
b1000100010 |
b1000100010 \"
b1000 ["
b100011 K
b1000 w
b1100 {
b1000100010000000000010000010011 0"
b1000100010000000000010000010011 3"
1X
0Y
b1100110011 -"
b1100110011 S"
b0 ("
b0 <"
b10011 j
b10011 ,"
b110011001100000000010000010011 =
b110011001100000000010000010011 ."
b1000 h
b1000 8"
b1000 W"
b1000100010 :"
b1000100010 O"
1i
b1000100010 d
b1000100010 h"
b1000 c
b1000 5"
b1000 ="
b1000 B"
b1000 g"
1a
0b
b110100 H
b110100 J"
b11100 J
b11100 1"
b100000000010011000100011 n
b100000000010011000100011 u
b100000000010011000100011 2"
b100000000010011000100011 _"
b100100 F
b100100 K"
b100000 8
b100000 G
b100000 /"
b100000 4"
b100000 V"
b10101 1
1*
#1000
0*
#1025
b100010001000 I
b100010001000 ^"
b10001000100 v
b10001000100 ]"
b10001000100 `"
b1100 <
b1100 V
1D
b10001000100 a"
b1000 ?"
b1000 D"
b1000 Q"
b1000 X"
b1100 9
b1100 T"
b1100110011 \
b1100110011 @"
b1100110011 R"
b100 q
b10 l
b10 >"
b101000 M"
b101000 U"
0w"
b11001 0#
1y
0~
0o"
0m"
1U
0S
b101 y"
b101 '#
b1100100000 )
b1100100000 7
b1100100000 v"
b1100100000 -#
b0 p"
b0 +#
0e"
b10 ?
b0 k"
b0 (
b0 5
b0 f"
b0 .#
b0 q"
b0 (#
b0 e
b0 |
b0 \"
b100 ["
b10011 K
b100 w
b1000 {
b0 $#
b0 ##
b0 "#
b10011 s"
b11001 d"
b11001 &#
b11001 )#
b11001 t"
0c"
0j"
b100000000000000000000000 x"
b100000000000000000000000 *#
0b"
0l"
b0 >
b100000000010100000100011 0"
b100000000010100000100011 3"
b100010101000 H
b100010101000 J"
b100000 J
b100000 1"
b1000100010000000000010000010011 n
b1000100010000000000010000010011 u
b1000100010000000000010000010011 2"
b1000100010000000000010000010011 _"
b0 d
b0 h"
b1100110011 c
b1100110011 5"
b1100110011 ="
b1100110011 B"
b1100110011 g"
0a
1b
b1000 :"
b1000 O"
0i
0X
1Y
b1100 -"
b1100 S"
b1000100010 ("
b1000100010 <"
b1100 ]
b1100 o
b1100 )"
b1000 j
b1000 ,"
b100000000010011000100011 =
b100000000010011000100011 ."
b101000 F
b101000 K"
b100100 8
b100100 G
b100100 /"
b100100 4"
b100100 V"
b10110 1
1*
#1050
0*
#1075
b100000 I
b100000 ^"
b10000 v
b10000 ]"
b10000 `"
b10001000100 <
b10001000100 V
0D
b10001000100 9
b10001000100 T"
b1100110011 ?"
b1100110011 D"
b1100110011 Q"
b1100110011 X"
b0 \
b0 @"
b0 R"
b0 l
b0 >"
b1000 q
b10000 a"
b101100 M"
b101100 U"
1e"
b1100110011000000000000000000000010001000100000000000000000000000010001000100000000000000000000000000000000 y"
b1100110011000000000000000000000010001000100000000000000000000000010001000100000000000000000000000000000000 '#
b110000000000000000000000 x"
b110000000000000000000000 *#
1b"
1l"
1w"
b0 0#
1o"
1m"
0y
1~
b0 ?
b0 )
b0 7
b0 v"
b0 -#
0W
b10001000100000000000000000000000010001000100000000000000000000000000000000 k"
b10001000100000000000000000000000010001000100000000000000000000000000000000 (
b10001000100000000000000000000000010001000100000000000000000000000000000000 5
b10001000100000000000000000000000010001000100000000000000000000000000000000 f"
b10001000100000000000000000000000010001000100000000000000000000000000000000 .#
b10001000100000000000000000000000010001000100000000000000000000000000000000 q"
b10001000100000000000000000000000010001000100000000000000000000000000000000 (#
b110000000000000000000000 p"
b110000000000000000000000 +#
0U
1S
b100010 >
b1100110011000000000000000000000010001000100000000000000000000000010001000100000000000000000000000000000000 $#
b1100110011000000000000000000000000000000000000000000000000000000000000000000000000000000000000000000000000 ##
b10001000100000000000000000000000010001000100000000000000000000000000000000 "#
b1100 s"
b0 d"
b0 &#
b0 )#
b0 t"
1c"
1j"
b1100110011 e
b1100110011 |
b1100110011 \"
b1000 ["
b100011 K
b1000 w
b10000 {
b1010101010100000000010000010011 0"
b1010101010100000000010000010011 3"
1X
0Y
b10001000100 -"
b10001000100 S"
b0 ("
b0 <"
b1000 ]
b1000 o
b1000 )"
b100 j
b100 ,"
b1000100010000000000010000010011 =
b1000100010000000000010000010011 ."
b1100110011 :"
b1100110011 O"
1i
b1100 ^
b1100 g
b1100 6"
b1100110011 d
b1100110011 h"
b1100 c
b1100 5"
b1100 ="
b1100 B"
b1100 g"
1a
0b
b1000100 H
b1000100 J"
b100100 J
b100100 1"
b100000000010100000100011 n
b100000000010100000100011 u
b100000000010100000100011 2"
b100000000010100000100011 _"
b101100 F
b101100 K"
b101000 8
b101000 G
b101000 /"
b101000 4"
b101000 V"
b10111 1
1*
#1100
0*
